{
  "_class": "symbolInstance",
  "do_objectID": "9C08A2F4-4687-483C-B433-73B129BEB89D",
  "exportOptions": {
    "_class": "exportOptions",
    "exportFormats": [
    ],
    "includedLayerIds": [
    ],
    "layerOptions": 0,
    "shouldTrim": false
  },
  "frame": {
    "_class": "rect",
    "constrainProportions": false,
    "height": 40,
    "width": 220,
    "x": 0,
    "y": 360
  },
  "horizontalSpacing": 0,
  "isFlippedHorizontal": false,
  "isFlippedVertical": false,
  "isLocked": false,
  "isVisible": true,
  "layerListExpandedType": 0,
  "masterInfluenceEdgeMaxXPadding": 1,
  "masterInfluenceEdgeMaxYPadding": 1,
  "masterInfluenceEdgeMinXPadding": 0,
  "masterInfluenceEdgeMinYPadding": 0,
  "name": "sidebar/molecules/menu-item/",
  "nameIsFixed": true,
  "overrides": {
    "15654E37-957C-42B5-8981-C4F1B5B12658": {
      "2FA2843A-0983-4207-9192-348D07D35BB8": {
        "symbolID": "EAB165A5-6100-4D37-9D0B-ED03DA773770"
      },
      "682938A5-FD80-447D-90A2-F67E0CD30FAD": {
        "symbolID": "5A49560B-8379-495D-95CB-DDEB53CA71BE"
      },
      "87B502AC-6C3D-4A0D-9017-AF211BCE23AA": {
        "symbolID": "82060AFB-5C5F-4178-A8BD-C12F1F115034"
      },
      "EE850450-453E-4DD7-8B69-D1A9A79B7AFF": {
        "symbolID": "5A49560B-8379-495D-95CB-DDEB53CA71BE"
      },
      "symbolID": "0140D24B-F932-440C-8A8F-CCA8A9117C5D"
    },
    "69B9D507-A5EB-45D9-81F5-4C6E1AAB425A": {
      "7B3078E7-F805-4EE8-8848-5FA084C6A7B7": "Wiki",
      "9505DB84-2594-410F-BAC6-F8A173ACEADD": {
        "symbolID": ""
      },
      "A2A022FF-7C80-411C-8C24-E06CA8249433": "Members",
      "FB150F4B-17F2-4F09-96C6-AEDDAD8D8DFC": {
        "symbolID": ""
      }
    }
  },
  "resizingConstraint": 63,
  "resizingType": 0,
  "rotation": 0,
  "shouldBreakMaskChain": false,
  "style": {
    "_class": "style",
    "endDecorationType": 0,
    "miterLimit": 10,
    "startDecorationType": 0
  },
  "symbolID": "42FC1E5F-60CA-4B2C-8A9E-AC9131844DB4",
  "verticalSpacing": 0
}