{
  "_class": "shapePath",
  "booleanOperation": -1,
  "do_objectID": "CD58F7D0-AB2F-4F6A-BE68-D371EF7DFF0D",
  "edited": true,
  "exportOptions": {
    "_class": "exportOptions",
    "exportFormats": [
    ],
    "includedLayerIds": [
    ],
    "layerOptions": 0,
    "shouldTrim": false
  },
  "frame": {
    "_class": "rect",
    "constrainProportions": false,
    "height": 12.24235388886324,
    "width": 10.364868283064,
    "x": -8.673617379884035e-18,
    "y": 0
  },
  "isFlippedHorizontal": false,
  "isFlippedVertical": false,
  "isLocked": false,
  "isVisible": true,
  "layerListExpandedType": 0,
  "name": "Path",
  "nameIsFixed": false,
  "path": {
    "_class": "path",
    "isClosed": true,
    "pointRadiusBehaviour": 1,
    "points": [
      {
        "_class": "curvePoint",
        "cornerRadius": 0,
        "curveFrom": "{0.99999999999986711, 0.14301134140996097}",
        "curveMode": 1,
        "curveTo": "{0.99999999999986711, 0.14301134140996097}",
        "hasCurveFrom": false,
        "hasCurveTo": false,
        "point": "{0.99999999999986711, 0.14301134140996097}"
      },
      {
        "_class": "curvePoint",
        "cornerRadius": 0,
        "curveFrom": "{0.82195414231631625, 0.25124004826698598}",
        "curveMode": 4,
        "curveTo": "{0.8591540142227696, 0.26388688792877313}",
        "hasCurveFrom": true,
        "hasCurveTo": false,
        "point": "{0.8591540142227696, 0.26388688792877313}"
      },
      {
        "_class": "curvePoint",
        "cornerRadius": 0,
        "curveFrom": "{0.57357223864972129, 0.24505091318501032}",
        "curveMode": 3,
        "curveTo": "{0.77835502900573017, 0.24505091318501032}",
        "hasCurveFrom": true,
        "hasCurveTo": true,
        "point": "{0.72654940373137167, 0.24505091318501032}"
      },
      {
        "_class": "curvePoint",
        "cornerRadius": 0,
        "curveFrom": "{0.40454984729404714, 0.47976571935646234}",
        "curveMode": 3,
        "curveTo": "{0.48960097348616355, 0.30373471031603844}",
        "hasCurveFrom": true,
        "hasCurveTo": true,
        "point": "{0.43123790699767439, 0.4245292246820857}"
      },
      {
        "_class": "curvePoint",
        "cornerRadius": 0,
        "curveFrom": "{0.362798467684736, 0.64870148502544878}",
        "curveMode": 3,
        "curveTo": "{0.39736058756938053, 0.50474999590950054}",
        "hasCurveFrom": true,
        "hasCurveTo": true,
        "point": "{0.36901494009684749, 0.62280983070104967}"
      },
      {
        "_class": "curvePoint",
        "cornerRadius": 0,
        "curveFrom": "{0.33881740462432325, 0.71044538735592078}",
        "curveMode": 4,
        "curveTo": "{0.35275187099601663, 0.67779772606425259}",
        "hasCurveFrom": false,
        "hasCurveTo": true,
        "point": "{0.33881740462432325, 0.71044538735592078}"
      },
      {
        "_class": "curvePoint",
        "cornerRadius": 0,
        "curveFrom": "{-0.0032140507295821802, 0.96762223405082282}",
        "curveMode": 4,
        "curveTo": "{0.0014240605717800807, 1.0000000000000002}",
        "hasCurveFrom": true,
        "hasCurveTo": false,
        "point": "{0.0014240605717800807, 1.0000000000000002}"
      },
      {
        "_class": "curvePoint",
        "cornerRadius": 0,
        "curveFrom": "{0.11426417451318417, 0.75678160215843171}",
        "curveMode": 3,
        "curveTo": "{0.003370861377625092, 0.93373977407446829}",
        "hasCurveFrom": true,
        "hasCurveTo": true,
        "point": "{0.022744688694315344, 0.90282395914207814}"
      },
      {
        "_class": "curvePoint",
        "cornerRadius": 0,
        "curveFrom": "{0.21327742490489437, 0.46195915999679316}",
        "curveMode": 3,
        "curveTo": "{0.16754052705322525, 0.65245368334392495}",
        "hasCurveFrom": true,
        "hasCurveTo": true,
        "point": "{0.18257374835067453, 0.5898402036383914}"
      },
      {
        "_class": "curvePoint",
        "cornerRadius": 0,
        "curveFrom": "{0.62496220298033001, 0.08642805366554443}",
        "curveMode": 4,
        "curveTo": "{0.27274595455230577, 0.14049419252094364}",
        "hasCurveFrom": true,
        "hasCurveTo": true,
        "point": "{0.62519541611238949, 0.088760339688300466}"
      },
      {
        "_class": "curvePoint",
        "cornerRadius": 0,
        "curveFrom": "{0.62484318601815902, 0.036571010302788462}",
        "curveMode": 3,
        "curveTo": "{0.62484318601815902, 0.084067773926384523}",
        "hasCurveFrom": true,
        "hasCurveTo": true,
        "point": "{0.62484318601815902, 0.081683637728336783}"
      },
      {
        "_class": "curvePoint",
        "cornerRadius": 0,
        "curveFrom": "{0.77258808126604728, 0}",
        "curveMode": 2,
        "curveTo": "{0.66745627150405573, 0}",
        "hasCurveFrom": true,
        "hasCurveTo": true,
        "point": "{0.7200221763850515, 0}"
      },
      {
        "_class": "curvePoint",
        "cornerRadius": 0,
        "curveFrom": "{0.8152011667519441, 0.083399347730807788}",
        "curveMode": 3,
        "curveTo": "{0.8152011667519441, 0.036571010302788462}",
        "hasCurveFrom": true,
        "hasCurveTo": true,
        "point": "{0.8152011667519441, 0.081683637728336783}"
      },
      {
        "_class": "curvePoint",
        "cornerRadius": 0,
        "curveFrom": "{0.88849043877333145, 0.095665037757584198}",
        "curveMode": 4,
        "curveTo": "{0.81513953074376833, 0.085102703049809852}",
        "hasCurveFrom": true,
        "hasCurveTo": true,
        "point": "{0.81501805535061433, 0.086792161803906268}"
      },
      {
        "_class": "curvePoint",
        "cornerRadius": 0,
        "curveFrom": "{1, 0.14301134141043945}",
        "curveMode": 4,
        "curveTo": "{0.94935101597867844, 0.11563039865575128}",
        "hasCurveFrom": false,
        "hasCurveTo": true,
        "point": "{1, 0.14301134141043945}"
      }
    ]
  },
  "resizingConstraint": 63,
  "resizingType": 0,
  "rotation": 0,
  "shouldBreakMaskChain": false
}