<?xml version="1.0" encoding="UTF-8"?>
<svg width="5px" height="8px" viewBox="0 0 5 8" version="1.1" xmlns="http://www.w3.org/2000/svg" xmlns:xlink="http://www.w3.org/1999/xlink">
    <!-- Generator: Sketch 52.3 (67297) - http://www.bohemiancoding.com/sketch -->
    <title>icn/chevron-right</title>
    <desc>Created with Sketch.</desc>
    <defs>
        <path d="M2.58578204,3.98856669 L0.294662796,1.70887194 C-0.0968363665,1.31932496 -0.0984189222,0.686161959 0.291128059,0.294662796 C0.68067504,-0.0968363665 1.31383804,-0.0984189222 1.7053372,0.291128059 L4.7053372,3.27616878 C5.09683981,3.66571919 5.09841844,4.29888898 4.70886317,4.69038674 L1.70886317,7.70534602 C1.31931132,8.09684034 0.686148303,8.09841502 0.294653983,7.70886317 C-0.0968403364,7.31931132 -0.0984150204,6.6861483 0.291136828,6.29465398 L2.58578204,3.98856669 Z" id="path-1"></path>
    </defs>
    <g id="Page-1" stroke="none" stroke-width="1" fill="none" fill-rule="evenodd">
        <g id="System-metrics" transform="translate(-653.000000, -316.000000)">
            <g id="core-usage" transform="translate(93.000000, 154.000000)">
                <g id="scroll-shade" transform="translate(526.000000, 50.000000)">
                    <g id="icn/chevron-right" transform="translate(34.000000, 112.000000)">
                        <mask id="mask-2" fill="white">
                            <use xlink:href="#path-1"></use>
                        </mask>
                        <use id="Mask" fill="#000000" fill-rule="nonzero" xlink:href="#path-1"></use>
                        <g id="c-fill/greys/$grey-500-::-A7A7A7" mask="url(#mask-2)" fill="#A7A7A7">
                            <g transform="translate(-6.000000, -4.000000)" id="fill/greys/$grey-500-::-A7A7A7">
                                <rect x="0" y="0" width="16" height="16"></rect>
                            </g>
                        </g>
                    </g>
                </g>
            </g>
        </g>
    </g>
</svg>