{
  "_class": "group",
  "do_objectID": "E87BB9B7-828C-4198-9D89-FF384F2E1FFF",
  "exportOptions": {
    "_class": "exportOptions",
    "exportFormats": [
    ],
    "includedLayerIds": [
    ],
    "layerOptions": 0,
    "shouldTrim": false
  },
  "frame": {
    "_class": "rect",
    "constrainProportions": false,
    "height": 51,
    "width": 101,
    "x": 64,
    "y": 0
  },
  "hasClickThrough": false,
  "isFlippedHorizontal": false,
  "isFlippedVertical": false,
  "isLocked": false,
  "isVisible": true,
  "layerListExpandedType": 0,
  "layers": [
    {
      "class": "shapeGroup",
      "id": "E6FD7C63-FA02-4138-B37B-04420DDCA9A8"
    },
    {
      "class": "shapeGroup",
      "id": "C562C855-F4FB-4176-A8A8-92D029C1C3AB"
    },
    {
      "class": "shapeGroup",
      "id": "DA67CE52-7779-4D86-9990-A24211A7AFE3"
    },
    {
      "class": "shapeGroup",
      "id": "6236C9B9-A0AC-4916-A70B-35658A1C11D8"
    },
    {
      "class": "shapeGroup",
      "id": "F711148D-6EE2-4CDF-9852-3DB0BC5109AA"
    },
    {
      "class": "group",
      "id": "3A7F9DAE-359A-414B-861D-C253781AB69A"
    },
    {
      "class": "text",
      "id": "6129AE78-E8AC-461B-8D4E-261C83F7C1BF"
    }
  ],
  "name": "closed",
  "nameIsFixed": true,
  "resizingConstraint": 41,
  "resizingType": 1,
  "rotation": 0,
  "shouldBreakMaskChain": false,
  "style": {
    "_class": "style",
    "endDecorationType": 0,
    "miterLimit": 10,
    "startDecorationType": 0
  }
}