{
  "_class": "group",
  "do_objectID": "70A1D9CE-0C75-485F-B977-CA83C72D131E",
  "exportOptions": {
    "_class": "exportOptions",
    "exportFormats": [
    ],
    "includedLayerIds": [
    ],
    "layerOptions": 0,
    "shouldTrim": false
  },
  "frame": {
    "_class": "rect",
    "constrainProportions": false,
    "height": 2097,
    "width": 97,
    "x": 462,
    "y": 120
  },
  "hasClickThrough": false,
  "isFlippedHorizontal": false,
  "isFlippedVertical": false,
  "isLocked": false,
  "isVisible": true,
  "layerListExpandedType": 0,
  "layers": [
    {
      "class": "shapeGroup",
      "id": "86BED17A-633C-4BFB-8648-A530239E8500"
    },
    {
      "class": "shapeGroup",
      "id": "C82E78FB-3E2A-46DE-BD08-3F6D0DD3EF06"
    },
    {
      "class": "shapeGroup",
      "id": "FE3AD3FB-999F-410F-8B61-C8F15574312F"
    },
    {
      "class": "shapeGroup",
      "id": "9CF84000-0092-4382-916B-B23497741B6D"
    },
    {
      "class": "group",
      "id": "E134A0E3-5FE0-4A79-82A6-5CC5B5257582"
    }
  ],
  "name": "milestone copy",
  "nameIsFixed": true,
  "resizingConstraint": 63,
  "resizingType": 0,
  "rotation": 0,
  "shouldBreakMaskChain": false,
  "style": {
    "_class": "style",
    "endDecorationType": 0,
    "miterLimit": 10,
    "startDecorationType": 0
  }
}