{
  "_class": "shapePath",
  "booleanOperation": -1,
  "do_objectID": "FC05D348-72CE-457D-9449-22D91E984F8F",
  "edited": true,
  "exportOptions": {
    "_class": "exportOptions",
    "exportFormats": [
    ],
    "includedLayerIds": [
    ],
    "layerOptions": 0,
    "shouldTrim": false
  },
  "frame": {
    "_class": "rect",
    "constrainProportions": false,
    "height": 5.33360223292549,
    "width": 3.576877925925486,
    "x": 7.629156170343847,
    "y": 9.745114058160722e-18
  },
  "isFlippedHorizontal": false,
  "isFlippedVertical": false,
  "isLocked": false,
  "isVisible": true,
  "layerListExpandedType": 0,
  "name": "Path",
  "nameIsFixed": false,
  "path": {
    "_class": "path",
    "isClosed": true,
    "pointRadiusBehaviour": 1,
    "points": [
      {
        "_class": "curvePoint",
        "cornerRadius": 0,
        "curveFrom": "{0.36189273169409042, 1}",
        "curveMode": 1,
        "curveTo": "{0.36189273169409042, 1}",
        "hasCurveFrom": false,
        "hasCurveTo": false,
        "point": "{0.36189273169409042, 1}"
      },
      {
        "_class": "curvePoint",
        "cornerRadius": 0,
        "curveFrom": "{0, 0.58331115606436479}",
        "curveMode": 1,
        "curveTo": "{0, 0.58331115606436479}",
        "hasCurveFrom": false,
        "hasCurveTo": false,
        "point": "{0, 0.58331115606436479}"
      },
      {
        "_class": "curvePoint",
        "cornerRadius": 0,
        "curveFrom": "{0.47032330154250024, 0.040375846427595369}",
        "curveMode": 4,
        "curveTo": "{0.41479919506459312, 0.1053690520701912}",
        "hasCurveFrom": true,
        "hasCurveTo": false,
        "point": "{0.41479919506459312, 0.1053690520701912}"
      },
      {
        "_class": "curvePoint",
        "cornerRadius": 0,
        "curveFrom": "{0.79859438655910253, -0.00016385411910005974}",
        "curveMode": 2,
        "curveTo": "{0.5739171715952851, 0.00016486559599953934}",
        "hasCurveFrom": true,
        "hasCurveTo": true,
        "point": "{0.68625577907719326, 5.0573844973980632e-07}"
      },
      {
        "_class": "curvePoint",
        "cornerRadius": 0,
        "curveFrom": "{1.0143588129318295, 0.16940382080467503}",
        "curveMode": 2,
        "curveTo": "{0.90245291125636629, 0.039743608208806187}",
        "hasCurveFrom": true,
        "hasCurveTo": true,
        "point": "{0.95840586209409739, 0.10457371450674061}"
      },
      {
        "_class": "curvePoint",
        "cornerRadius": 0,
        "curveFrom": "{0.95701218061317794, 0.31371347403800881}",
        "curveMode": 4,
        "curveTo": "{1.0138269530811848, 0.24921620461757604}",
        "hasCurveFrom": false,
        "hasCurveTo": true,
        "point": "{0.95701218061317794, 0.31371347403800881}"
      },
      {
        "_class": "curvePoint",
        "cornerRadius": 0,
        "curveFrom": "{0.36157967569781491, 1}",
        "curveMode": 1,
        "curveTo": "{0.36157967569781491, 1}",
        "hasCurveFrom": false,
        "hasCurveTo": false,
        "point": "{0.36157967569781491, 1}"
      }
    ]
  },
  "resizingConstraint": 63,
  "resizingType": 0,
  "rotation": 0,
  "shouldBreakMaskChain": false
}