{
  "_class": "group",
  "do_objectID": "A7070AD8-D63B-450A-B067-CE72E4849C84",
  "exportOptions": {
    "_class": "exportOptions",
    "exportFormats": [
    ],
    "includedLayerIds": [
    ],
    "layerOptions": 0,
    "shouldTrim": false
  },
  "frame": {
    "_class": "rect",
    "constrainProportions": false,
    "height": 28,
    "width": 647,
    "x": 607,
    "y": 1262
  },
  "hasClickThrough": false,
  "isFlippedHorizontal": false,
  "isFlippedVertical": false,
  "isLocked": false,
  "isVisible": true,
  "layerListExpandedType": 2,
  "layers": [
    {
      "class": "shapeGroup",
      "id": "4F81D7FA-B94F-4D5B-9439-3DEA51AA9511"
    },
    {
      "class": "shapeGroup",
      "id": "C98F28FB-6055-48F0-95BC-854342F1FE4B"
    },
    {
      "class": "shapeGroup",
      "id": "7E82E5B6-572D-472F-991A-7858483FBF10"
    },
    {
      "class": "text",
      "id": "E646A128-0226-4E5C-B6C9-8E409FCFD248"
    }
  ],
  "name": "new_epic copy 21",
  "nameIsFixed": true,
  "resizingConstraint": 63,
  "resizingType": 0,
  "rotation": 0,
  "shouldBreakMaskChain": false,
  "style": {
    "_class": "style",
    "endDecorationType": 0,
    "miterLimit": 10,
    "startDecorationType": 0
  }
}